CC,"conjunction, coordinating"
CD,cardinal number
DT,determiner
EX,existential there
FW,foreign word
IN,"conjunction, subordinating or preposition"
JJ,adjective
JJR,"adjective, comparative"
JJS,"adjective, superlative"
LS,list item marker
MD,"verb, modal auxillary"
NN,"noun, singular or mass"
NNS,"noun, plural"
NNP,"noun, proper singular"
NNPS,"noun, proper plural"
PDT,predeterminer
POS,possessive ending
PRP,"pronoun, personal"
PRP$,"pronoun, possessive"
RB,adverb
RBR,"adverb, comparative"
RBS,"adverb, superlative"
RP,"adverb, particle"
SYM,symbol
TO,infinitival to
UH,interjection
VB,"verb, base form"
VBZ,"verb, 3rd person singular present"
VBP,"verb, non-3rd person singular present"
VBD,"verb, past tense"
VBN,"verb, past participle"
VBG,"verb, gerund or present participle"
WDT,wh-determiner
WP,"wh-pronoun, personal"
WP$,"wh-pronoun, possessive"
WRB,wh-adverb
Tag,Description
NP,noun phrase 
PP,prepositional phrase
VP,verb phrase 
ADVP,adverb phrase
ADJP,adjective phrase 
SBAR,subordinating conjunction 
PRT,particle
INTJ,interjection
PNP,prepositional noun phrase
-SBJ,sentence subject
-OBJ,sentence object
-PRD,predicate
-TMP,temporal 
-CLR,closely related
-LOC,location 
-DIR,direction
-EXT,extent
-PRP,purpose
A1,anchor chunks that corresponds to P1
P1,PNP that corresponds to A1
